{
    "config": {
        "step": {
            "user": {
                "title": "Unifi Protect",
                "description": "Set up Unifi Protect to monitor cameras and sensors.",
                "data": {
                    "host": "IP Address of Unifi Protect Server",
                    "port": "Port Number: (7443 NON UnifiOS, 443 UnifiOS)",
                    "username": "Username",
                    "password": "Password"
                }
            }
        },
        "error": {
            "connection_error": "Failed to connect. Wrong IP or Username/Password.",
            "protect_version": "UniFi Protect Version is not supported by this Integration",
            "nvr_error": "Error retrieving data from Unifi Protect."
        },
        "abort": {
            "server_exists": "Unifi Protect Server already configured."
        }
    },
    "options": {
        "step": {
            "init": {
                "data": {
                    "username": "Username",
                    "password": "Password",
                    "disable_rtsp": "Disable the RTSP stream",
                    "doorbell_text": "Add a comma separated list of Custom Texts for the doorbell. Leave blank if no Doorbel"
                }
            }
        }
    }
}